{
  "version": "15.0.4",
  "vulnerabilities": [
    {
      "id": ":SKIP:",
      "category": "sast",
      "name": "User input found in preg_replace, /e modifier could be used for malicious intent.",
      "description": "User input found in preg_replace, /e modifier could be used for malicious intent.",
      "cve": "app/main.php:PHPCS_SecurityAudit.BadFunctions.PregReplace.PregReplaceUserInput",
      "severity": "High",
      "scanner": {
        "id": "phpcs_security_audit",
        "name": "phpcs-security-audit v2"
      },
      "location": {
        "file": "app/main.php",
        "start_line": 10
      },
      "identifiers": [
        {
          "type": "phpcs_security_audit_source",
          "name": "PHPCS_SecurityAudit.BadFunctions.PregReplace.PregReplaceUserInput",
          "value": "PHPCS_SecurityAudit.BadFunctions.PregReplace.PregReplaceUserInput"
        }
      ],
      "tracking": {
        "type": "source",
        "items": [
          {
            "file": "app/main.php",
            "line_start": 10,
            "line_end": 10,
            "signatures": [
              {
                "algorithm": "scope_offset_compressed",
                "value": "app/main.php|main[0]:5"
              },
              {
                "algorithm": "scope_offset",
                "value": "app/main.php|main[0]:6"
              }
            ]
          }
        ]
      }
    },
    {
      "id": ":SKIP:",
      "category": "sast",
      "name": "User input and /e modifier found in preg_replace, remote code execution possible.",
      "description": "User input and /e modifier found in preg_replace, remote code execution possible.",
      "cve": "app/main.php:PHPCS_SecurityAudit.BadFunctions.PregReplace.PregReplaceUserInputE",
      "severity": "High",
      "scanner": {
        "id": "phpcs_security_audit",
        "name": "phpcs-security-audit v2"
      },
      "location": {
        "file": "app/main.php",
        "start_line": 9
      },
      "identifiers": [
        {
          "type": "phpcs_security_audit_source",
          "name": "PHPCS_SecurityAudit.BadFunctions.PregReplace.PregReplaceUserInputE",
          "value": "PHPCS_SecurityAudit.BadFunctions.PregReplace.PregReplaceUserInputE"
        }
      ],
      "tracking": {
        "type": "source",
        "items": [
          {
            "file": "app/main.php",
            "line_start": 9,
            "line_end": 9,
            "signatures": [
              {
                "algorithm": "scope_offset_compressed",
                "value": "app/main.php|main[0]:4"
              },
              {
                "algorithm": "scope_offset",
                "value": "app/main.php|main[0]:5"
              }
            ]
          }
        ]
      }
    },
    {
      "id": ":SKIP:",
      "category": "sast",
      "name": "Unusual function ftp_exec() detected",
      "description": "Unusual function ftp_exec() detected",
      "cve": "app/main.php:PHPCS_SecurityAudit.BadFunctions.FringeFunctions.WarnFringestuff",
      "severity": "Low",
      "scanner": {
        "id": "phpcs_security_audit",
        "name": "phpcs-security-audit v2"
      },
      "location": {
        "file": "app/main.php",
        "start_line": 6
      },
      "identifiers": [
        {
          "type": "phpcs_security_audit_source",
          "name": "PHPCS_SecurityAudit.BadFunctions.FringeFunctions.WarnFringestuff",
          "value": "PHPCS_SecurityAudit.BadFunctions.FringeFunctions.WarnFringestuff"
        }
      ],
      "tracking": {
        "type": "source",
        "items": [
          {
            "file": "app/main.php",
            "line_start": 6,
            "line_end": 6,
            "signatures": [
              {
                "algorithm": "scope_offset",
                "value": "app/main.php|main[0]:2"
              }
            ]
          }
        ]
      }
    },
    {
      "id": ":SKIP:",
      "category": "sast",
      "name": "phpinfo() function detected",
      "description": "phpinfo() function detected",
      "cve": "app/main.php:PHPCS_SecurityAudit.BadFunctions.Phpinfos.WarnPhpinfo",
      "severity": "Low",
      "scanner": {
        "id": "phpcs_security_audit",
        "name": "phpcs-security-audit v2"
      },
      "location": {
        "file": "app/main.php",
        "start_line": 5
      },
      "identifiers": [
        {
          "type": "phpcs_security_audit_source",
          "name": "PHPCS_SecurityAudit.BadFunctions.Phpinfos.WarnPhpinfo",
          "value": "PHPCS_SecurityAudit.BadFunctions.Phpinfos.WarnPhpinfo"
        }
      ],
      "tracking": {
        "type": "source",
        "items": [
          {
            "file": "app/main.php",
            "line_start": 5,
            "line_end": 5,
            "signatures": [
              {
                "algorithm": "scope_offset",
                "value": "app/main.php|main[0]:1"
              }
            ]
          }
        ]
      }
    },
    {
      "id": ":SKIP:",
      "category": "sast",
      "name": "Usage of preg_replace with /e modifier is not recommended.",
      "description": "Usage of preg_replace with /e modifier is not recommended.",
      "cve": "app/main.php:PHPCS_SecurityAudit.BadFunctions.PregReplace.PregReplaceE",
      "severity": "Low",
      "scanner": {
        "id": "phpcs_security_audit",
        "name": "phpcs-security-audit v2"
      },
      "location": {
        "file": "app/main.php",
        "start_line": 9
      },
      "identifiers": [
        {
          "type": "phpcs_security_audit_source",
          "name": "PHPCS_SecurityAudit.BadFunctions.PregReplace.PregReplaceE",
          "value": "PHPCS_SecurityAudit.BadFunctions.PregReplace.PregReplaceE"
        }
      ],
      "tracking": {
        "type": "source",
        "items": [
          {
            "file": "app/main.php",
            "line_start": 9,
            "line_end": 9,
            "signatures": [
              {
                "algorithm": "scope_offset_compressed",
                "value": "app/main.php|main[0]:4"
              },
              {
                "algorithm": "scope_offset",
                "value": "app/main.php|main[0]:5"
              }
            ]
          }
        ]
      }
    },
    {
      "id": ":SKIP:",
      "category": "sast",
      "name": "System program execution function exec() detected with dynamic parameter",
      "description": "System program execution function exec() detected with dynamic parameter",
      "cve": "app/main.php:PHPCS_SecurityAudit.BadFunctions.SystemExecFunctions.WarnSystemExec",
      "severity": "Low",
      "scanner": {
        "id": "phpcs_security_audit",
        "name": "phpcs-security-audit v2"
      },
      "location": {
        "file": "app/main.php",
        "start_line": 7
      },
      "identifiers": [
        {
          "type": "phpcs_security_audit_source",
          "name": "PHPCS_SecurityAudit.BadFunctions.SystemExecFunctions.WarnSystemExec",
          "value": "PHPCS_SecurityAudit.BadFunctions.SystemExecFunctions.WarnSystemExec"
        }
      ],
      "tracking": {
        "type": "source",
        "items": [
          {
            "file": "app/main.php",
            "line_start": 7,
            "line_end": 7,
            "signatures": [
              {
                "algorithm": "scope_offset",
                "value": "app/main.php|main[0]:3"
              }
            ]
          }
        ]
      }
    }
  ],
  "dependency_files": [],
  "scan": {
    "analyzer": {
      "id": "phpcs-security-audit",
      "name": "phpcs-security-audit v2",
      "url": "https://gitlab.com/gitlab-org/security-products/analyzers/phpcs-security-audit",
      "vendor": {
        "name": "GitLab"
      },
      "version": ":SKIP:"
    },
    "scanner": {
      "id": "phpcs_security_audit",
      "name": "phpcs-security-audit v2",
      "url": "https://github.com/FloeDesignTechnologies/phpcs-security-audit",
      "vendor": {
        "name": "GitLab"
      },
      "version": ":SKIP:"
    },
    "type": "sast",
    "start_time": ":SKIP:",
    "end_time": ":SKIP:",
    "status": "success"
  }
}
